E:\Project_NashTech_Training\InsertDataExelToH2\src\main\java\com\example\demo\models\ZikaCase.java
E:\Project_NashTech_Training\InsertDataExelToH2\src\main\java\com\example\demo\Main.java
E:\Project_NashTech_Training\InsertDataExelToH2\src\main\java\com\example\demo\dao\CreateDAO.java
E:\Project_NashTech_Training\InsertDataExelToH2\src\main\java\com\example\demo\dtos\ChartData.java
E:\Project_NashTech_Training\InsertDataExelToH2\src\main\java\com\example\demo\connect\DBConnect.java
E:\Project_NashTech_Training\InsertDataExelToH2\src\main\java\com\example\demo\dtos\IChartData.java
E:\Project_NashTech_Training\InsertDataExelToH2\src\main\java\com\example\demo\dao\CreateDAOImpl.java
